vlsi_project/2023102027_Project/VERILOG/add.vcd
$date
	Wed Nov 20 18:04:39 2024
$end
$version
	Icarus Verilog
$end
$timescale
	1ps
$end
$scope module CLA_testbench $end
$var wire 4 ! s [3:0] $end
$var wire 1 " Cout $end
$var reg 4 # a [3:0] $end
$var reg 4 $ b [3:0] $end
$var reg 1 % c0 $end
$var reg 1 & clk $end
$scope module fn $end
$var wire 4 ' a [3:0] $end
$var wire 4 ( b [3:0] $end
$var wire 1 % c0 $end
$var wire 1 & clk $end
$var wire 1 ) t1 $end
$var wire 1 * t10 $end
$var wire 1 + t11 $end
$var wire 1 , t12 $end
$var wire 1 - t13 $end
$var wire 1 . t14 $end
$var wire 1 / t15 $end
$var wire 1 0 t16 $end
$var wire 1 1 t17 $end
$var wire 1 2 t18 $end
$var wire 1 3 t19 $end
$var wire 1 4 t2 $end
$var wire 1 5 t20 $end
$var wire 1 6 t3 $end
$var wire 1 7 t4 $end
$var wire 1 8 t5 $end
$var wire 1 9 t6 $end
$var wire 1 : t7 $end
$var wire 1 ; t8 $end
$var wire 1 < t9 $end
$var wire 4 = p [3:0] $end
$var wire 4 > g [3:0] $end
$var reg 1 " Cout $end
$var reg 4 ? a_reg [3:0] $end
$var reg 4 @ b_reg [3:0] $end
$var reg 1 A c0_reg $end
$var reg 4 B s [3:0] $end
$upscope $end
$upscope $end
$enddefinitions $end
#0
$dumpvars
bx B
xA
bx @
bx ?
bx >
bx =
x<
x;
x:
x9
x8
x7
x6
x5
x4
x3
x2
x1
x0
x/
x.
x-
x,
x+
x*
x)
bx (
bx '
0&
x%
bx $
bx #
x"
bx !
$end
#2000
0%
b111 $
b111 (
b1 #
b1 '
#5000
03
15
02
1.
1/
00
1-
01
16
0)
14
1:
07
18
09
0,
0;
0<
0*
0+
b1 >
b110 =
0A
b111 @
b1 ?
1&
#10000
0&
#15000
0"
b1000 !
b1000 B
1&
#20000
0&
#22000
b1 $
b1 (
#25000
05
0.
0/
06
0:
04
12
08
03
b0 =
b1 @
1&
#30000
0&
#35000
b10 !
b10 B
1&
#40000
0&
#42000
b1010 $
b1010 (
b1010 #
b1010 '
#45000
13
02
1.
10
0-
16
1,
b1010 >
b1010 @
b1010 ?
1&
#50000
0&
#55000
1"
b100 !
b100 B
1&
#60000
0&
#62000
b10 $
b10 (
b1011 #
b1011 '
#65000
00
0,
15
11
b10 >
b1001 =
b10 @
b1011 ?
1&
#70000
0&
#75000
0"
b1101 !
b1101 B
1&
#80000
0&
#82000
b11 $
b11 (
b10 #
b10 '
#85000
05
b1 =
b11 @
b10 ?
1&
#90000
0&
#95000
b101 !
b101 B
1&
#100000
0&
#102000
b100 $
b100 (
b100 #
b100 '
#105000
03
15
0.
1/
01
06
1:
b0 =
b100 >
b100 @
b100 ?
1&
#110000
0&
#115000
b1000 !
b1000 B
1&
#120000
0&
#122000
b111 $
b111 (
b1100 #
b1100 '
#125000
10
1,
11
1)
12
1+
05
b1011 =
b111 @
b1100 ?
1&
#130000
0&
#135000
1"
b11 !
b11 B
1&
#140000
0&
#142000
b111 #
b111 '
#145000
13
00
1.
0,
1-
01
16
0)
12
0+
15
b111 >
b0 =
b111 ?
1&
#150000
0&
#155000
0"
b1110 !
b1110 B
1&
