vlsi_project/2023102027_Project/VERILOG/CLA_testbench.vcd
$date
	Wed Dec  4 00:56:09 2024
$end
$version
	Icarus Verilog
$end
$timescale
	1ps
$end
$scope module CLA_testbench $end
$var wire 1 ! s4 $end
$var wire 1 " s3 $end
$var wire 1 # s2 $end
$var wire 1 $ s1 $end
$var wire 1 % c4 $end
$var reg 1 & a1 $end
$var reg 1 ' a2 $end
$var reg 1 ( a3 $end
$var reg 1 ) a4 $end
$var reg 1 * b1 $end
$var reg 1 + b2 $end
$var reg 1 , b3 $end
$var reg 1 - b4 $end
$var reg 1 . c0 $end
$var reg 1 / clk $end
$var integer 32 0 i [31:0] $end
$scope module uut $end
$var wire 1 & a1 $end
$var wire 1 ' a2 $end
$var wire 1 ( a3 $end
$var wire 1 ) a4 $end
$var wire 1 * b1 $end
$var wire 1 + b2 $end
$var wire 1 , b3 $end
$var wire 1 - b4 $end
$var wire 1 . c0 $end
$var wire 1 / clk $end
$var wire 1 1 s4_d $end
$var wire 1 ! s4 $end
$var wire 1 2 s3_d $end
$var wire 1 " s3 $end
$var wire 1 3 s2_d $end
$var wire 1 # s2 $end
$var wire 1 4 s1_d $end
$var wire 1 $ s1 $end
$var wire 1 5 p4 $end
$var wire 1 6 p3 $end
$var wire 1 7 p2 $end
$var wire 1 8 p1 $end
$var wire 1 9 g4 $end
$var wire 1 : g3 $end
$var wire 1 ; g2 $end
$var wire 1 < g1 $end
$var wire 1 = c4_d $end
$var wire 1 % c4 $end
$var wire 1 > c3 $end
$var wire 1 ? c2 $end
$var wire 1 @ c1 $end
$var wire 1 A c0_d $end
$var wire 1 B b4_d $end
$var wire 1 C b3_d $end
$var wire 1 D b2_d $end
$var wire 1 E b1_d $end
$var wire 1 F a4_d $end
$var wire 1 G a3_d $end
$var wire 1 H a2_d $end
$var wire 1 I a1_d $end
$scope module carry $end
$var wire 1 J w9 $end
$var wire 1 K w8 $end
$var wire 1 L w7 $end
$var wire 1 M w6 $end
$var wire 1 N w5 $end
$var wire 1 O w4 $end
$var wire 1 P w3 $end
$var wire 1 Q w23 $end
$var wire 1 R w22 $end
$var wire 1 S w21 $end
$var wire 1 T w20 $end
$var wire 1 U w19 $end
$var wire 1 V w18 $end
$var wire 1 W w17 $end
$var wire 1 X w16 $end
$var wire 1 Y w15 $end
$var wire 1 Z w14 $end
$var wire 1 [ w13 $end
$var wire 1 \ w12 $end
$var wire 1 ] w11 $end
$var wire 1 ^ w10 $end
$var wire 1 _ w1 $end
$var wire 1 5 p4 $end
$var wire 1 6 p3 $end
$var wire 1 7 p2 $end
$var wire 1 8 p1 $end
$var wire 1 9 g4 $end
$var wire 1 : g3 $end
$var wire 1 ; g2 $end
$var wire 1 < g1 $end
$var wire 1 = c4 $end
$var wire 1 > c3 $end
$var wire 1 ? c2 $end
$var wire 1 @ c1 $end
$var wire 1 A c0 $end
$scope module and1 $end
$var wire 1 _ and_out $end
$var wire 1 ` n1 $end
$var wire 1 A b $end
$var wire 1 8 a $end
$upscope $end
$scope module and10 $end
$var wire 1 ] and_out $end
$var wire 1 a n1 $end
$var wire 1 ; b $end
$var wire 1 6 a $end
$upscope $end
$scope module and11 $end
$var wire 1 Z and_out $end
$var wire 1 b n1 $end
$var wire 1 6 b $end
$var wire 1 5 a $end
$upscope $end
$scope module and12 $end
$var wire 1 Z a $end
$var wire 1 Y and_out $end
$var wire 1 c n1 $end
$var wire 1 7 b $end
$upscope $end
$scope module and13 $end
$var wire 1 Y a $end
$var wire 1 X and_out $end
$var wire 1 d n1 $end
$var wire 1 8 b $end
$upscope $end
$scope module and14 $end
$var wire 1 X a $end
$var wire 1 W and_out $end
$var wire 1 e n1 $end
$var wire 1 A b $end
$upscope $end
$scope module and15 $end
$var wire 1 Y a $end
$var wire 1 V and_out $end
$var wire 1 f n1 $end
$var wire 1 < b $end
$upscope $end
$scope module and16 $end
$var wire 1 Z a $end
$var wire 1 U and_out $end
$var wire 1 g n1 $end
$var wire 1 ; b $end
$upscope $end
$scope module and17 $end
$var wire 1 T and_out $end
$var wire 1 h n1 $end
$var wire 1 : b $end
$var wire 1 5 a $end
$upscope $end
$scope module and3 $end
$var wire 1 P and_out $end
$var wire 1 i n1 $end
$var wire 1 8 b $end
$var wire 1 7 a $end
$upscope $end
$scope module and4 $end
$var wire 1 P a $end
$var wire 1 O and_out $end
$var wire 1 j n1 $end
$var wire 1 A b $end
$upscope $end
$scope module and5 $end
$var wire 1 N and_out $end
$var wire 1 k n1 $end
$var wire 1 < b $end
$var wire 1 7 a $end
$upscope $end
$scope module and6 $end
$var wire 1 L and_out $end
$var wire 1 l n1 $end
$var wire 1 7 b $end
$var wire 1 6 a $end
$upscope $end
$scope module and7 $end
$var wire 1 L a $end
$var wire 1 K and_out $end
$var wire 1 m n1 $end
$var wire 1 8 b $end
$upscope $end
$scope module and8 $end
$var wire 1 K a $end
$var wire 1 J and_out $end
$var wire 1 n n1 $end
$var wire 1 A b $end
$upscope $end
$scope module and9 $end
$var wire 1 L a $end
$var wire 1 ^ and_out $end
$var wire 1 o n1 $end
$var wire 1 < b $end
$upscope $end
$scope module or1 $end
$var wire 1 _ a $end
$var wire 1 p n1 $end
$var wire 1 q n2 $end
$var wire 1 @ or_out $end
$var wire 1 < b $end
$upscope $end
$scope module or10 $end
$var wire 1 T b $end
$var wire 1 r n1 $end
$var wire 1 s n2 $end
$var wire 1 Q or_out $end
$var wire 1 R a $end
$upscope $end
$scope module or11 $end
$var wire 1 Q a $end
$var wire 1 t n1 $end
$var wire 1 u n2 $end
$var wire 1 = or_out $end
$var wire 1 9 b $end
$upscope $end
$scope module or3 $end
$var wire 1 O a $end
$var wire 1 N b $end
$var wire 1 v n1 $end
$var wire 1 w n2 $end
$var wire 1 M or_out $end
$upscope $end
$scope module or4 $end
$var wire 1 M a $end
$var wire 1 x n1 $end
$var wire 1 y n2 $end
$var wire 1 ? or_out $end
$var wire 1 ; b $end
$upscope $end
$scope module or5 $end
$var wire 1 J a $end
$var wire 1 ^ b $end
$var wire 1 z n1 $end
$var wire 1 { n2 $end
$var wire 1 \ or_out $end
$upscope $end
$scope module or6 $end
$var wire 1 \ a $end
$var wire 1 ] b $end
$var wire 1 | n1 $end
$var wire 1 } n2 $end
$var wire 1 [ or_out $end
$upscope $end
$scope module or7 $end
$var wire 1 [ a $end
$var wire 1 ~ n1 $end
$var wire 1 !" n2 $end
$var wire 1 > or_out $end
$var wire 1 : b $end
$upscope $end
$scope module or8 $end
$var wire 1 W a $end
$var wire 1 V b $end
$var wire 1 "" n1 $end
$var wire 1 #" n2 $end
$var wire 1 S or_out $end
$upscope $end
$scope module or9 $end
$var wire 1 S a $end
$var wire 1 U b $end
$var wire 1 $" n1 $end
$var wire 1 %" n2 $end
$var wire 1 R or_out $end
$upscope $end
$upscope $end
$scope module dff_a1 $end
$var wire 1 & D $end
$var wire 1 / clk $end
$var reg 1 I Q $end
$upscope $end
$scope module dff_a2 $end
$var wire 1 ' D $end
$var wire 1 / clk $end
$var reg 1 H Q $end
$upscope $end
$scope module dff_a3 $end
$var wire 1 ( D $end
$var wire 1 / clk $end
$var reg 1 G Q $end
$upscope $end
$scope module dff_a4 $end
$var wire 1 ) D $end
$var wire 1 / clk $end
$var reg 1 F Q $end
$upscope $end
$scope module dff_b1 $end
$var wire 1 * D $end
$var wire 1 / clk $end
$var reg 1 E Q $end
$upscope $end
$scope module dff_b2 $end
$var wire 1 + D $end
$var wire 1 / clk $end
$var reg 1 D Q $end
$upscope $end
$scope module dff_b3 $end
$var wire 1 , D $end
$var wire 1 / clk $end
$var reg 1 C Q $end
$upscope $end
$scope module dff_b4 $end
$var wire 1 - D $end
$var wire 1 / clk $end
$var reg 1 B Q $end
$upscope $end
$scope module dff_c0 $end
$var wire 1 . D $end
$var wire 1 / clk $end
$var reg 1 A Q $end
$upscope $end
$scope module dff_c4 $end
$var wire 1 = D $end
$var wire 1 / clk $end
$var reg 1 % Q $end
$upscope $end
$scope module dff_s1 $end
$var wire 1 / clk $end
$var wire 1 4 D $end
$var reg 1 $ Q $end
$upscope $end
$scope module dff_s2 $end
$var wire 1 / clk $end
$var wire 1 3 D $end
$var reg 1 # Q $end
$upscope $end
$scope module dff_s3 $end
$var wire 1 / clk $end
$var wire 1 2 D $end
$var reg 1 " Q $end
$upscope $end
$scope module dff_s4 $end
$var wire 1 / clk $end
$var wire 1 1 D $end
$var reg 1 ! Q $end
$upscope $end
$scope module pg $end
$var wire 1 I a1 $end
$var wire 1 H a2 $end
$var wire 1 G a3 $end
$var wire 1 F a4 $end
$var wire 1 E b1 $end
$var wire 1 D b2 $end
$var wire 1 C b3 $end
$var wire 1 B b4 $end
$var wire 1 5 p4 $end
$var wire 1 6 p3 $end
$var wire 1 7 p2 $end
$var wire 1 8 p1 $end
$var wire 1 9 g4 $end
$var wire 1 : g3 $end
$var wire 1 ; g2 $end
$var wire 1 < g1 $end
$scope module pg1 $end
$var wire 1 I a $end
$var wire 1 E b $end
$var wire 1 8 p $end
$var wire 1 < g $end
$scope module and1 $end
$var wire 1 I a $end
$var wire 1 < and_out $end
$var wire 1 E b $end
$var wire 1 &" n1 $end
$upscope $end
$scope module xor1 $end
$var wire 1 I a $end
$var wire 1 E b $end
$var wire 1 '" n1 $end
$var wire 1 (" n2 $end
$var wire 1 )" n3 $end
$var wire 1 8 xor_out $end
$upscope $end
$upscope $end
$scope module pg2 $end
$var wire 1 H a $end
$var wire 1 D b $end
$var wire 1 7 p $end
$var wire 1 ; g $end
$scope module and1 $end
$var wire 1 H a $end
$var wire 1 ; and_out $end
$var wire 1 D b $end
$var wire 1 *" n1 $end
$upscope $end
$scope module xor1 $end
$var wire 1 H a $end
$var wire 1 D b $end
$var wire 1 +" n1 $end
$var wire 1 ," n2 $end
$var wire 1 -" n3 $end
$var wire 1 7 xor_out $end
$upscope $end
$upscope $end
$scope module pg3 $end
$var wire 1 G a $end
$var wire 1 C b $end
$var wire 1 6 p $end
$var wire 1 : g $end
$scope module and1 $end
$var wire 1 G a $end
$var wire 1 : and_out $end
$var wire 1 C b $end
$var wire 1 ." n1 $end
$upscope $end
$scope module xor1 $end
$var wire 1 G a $end
$var wire 1 C b $end
$var wire 1 /" n1 $end
$var wire 1 0" n2 $end
$var wire 1 1" n3 $end
$var wire 1 6 xor_out $end
$upscope $end
$upscope $end
$scope module pg4 $end
$var wire 1 F a $end
$var wire 1 B b $end
$var wire 1 5 p $end
$var wire 1 9 g $end
$scope module and1 $end
$var wire 1 F a $end
$var wire 1 9 and_out $end
$var wire 1 B b $end
$var wire 1 2" n1 $end
$upscope $end
$scope module xor1 $end
$var wire 1 F a $end
$var wire 1 B b $end
$var wire 1 3" n1 $end
$var wire 1 4" n2 $end
$var wire 1 5" n3 $end
$var wire 1 5 xor_out $end
$upscope $end
$upscope $end
$upscope $end
$scope module sum $end
$var wire 1 A c0 $end
$var wire 1 @ c1 $end
$var wire 1 ? c2 $end
$var wire 1 > c3 $end
$var wire 1 8 p1 $end
$var wire 1 7 p2 $end
$var wire 1 6 p3 $end
$var wire 1 5 p4 $end
$var wire 1 1 s4 $end
$var wire 1 2 s3 $end
$var wire 1 3 s2 $end
$var wire 1 4 s1 $end
$scope module xor1 $end
$var wire 1 8 a $end
$var wire 1 A b $end
$var wire 1 6" n1 $end
$var wire 1 7" n2 $end
$var wire 1 8" n3 $end
$var wire 1 4 xor_out $end
$upscope $end
$scope module xor2 $end
$var wire 1 7 a $end
$var wire 1 @ b $end
$var wire 1 9" n1 $end
$var wire 1 :" n2 $end
$var wire 1 ;" n3 $end
$var wire 1 3 xor_out $end
$upscope $end
$scope module xor3 $end
$var wire 1 6 a $end
$var wire 1 ? b $end
$var wire 1 <" n1 $end
$var wire 1 =" n2 $end
$var wire 1 >" n3 $end
$var wire 1 2 xor_out $end
$upscope $end
$scope module xor4 $end
$var wire 1 5 a $end
$var wire 1 > b $end
$var wire 1 ?" n1 $end
$var wire 1 @" n2 $end
$var wire 1 A" n3 $end
$var wire 1 1 xor_out $end
$upscope $end
$upscope $end
$upscope $end
$upscope $end
$enddefinitions $end
#0
$dumpvars
xA"
x@"
x?"
x>"
x="
x<"
x;"
x:"
x9"
x8"
x7"
x6"
x5"
x4"
x3"
x2"
x1"
x0"
x/"
x."
x-"
x,"
x+"
x*"
x)"
x("
x'"
x&"
x%"
x$"
x#"
x""
x!"
x~
x}
x|
x{
xz
xy
xx
xw
xv
xu
xt
xs
xr
xq
xp
xo
xn
xm
xl
xk
xj
xi
xh
xg
xf
xe
xd
xc
xb
xa
x`
x_
x^
x]
x\
x[
xZ
xY
xX
xW
xV
xU
xT
xS
xR
xQ
xP
xO
xN
xM
xL
xK
xJ
xI
xH
xG
xF
xE
xD
xC
xB
xA
x@
x?
x>
x=
x<
x;
x:
x9
x8
x7
x6
x5
x4
x3
x2
x1
b0 0
0/
0.
0-
0,
0+
0*
0)
0(
0'
0&
x%
x$
x#
x"
x!
$end
#5000
01
0=
1A"
1t
0>
0Q
02
1~
1r
1>"
0[
0R
0?
1|
1$"
1x
0\
0S
03
0M
1z
1""
1;"
1v
0J
0W
0@
0O
1{
1#"
14
1n
1e
1p
1%"
1w
1j
1}
1s
0^
0V
08"
0K
0X
0_
0U
0N
0P
0Y
0L
0]
0T
0Z
1q
1o
1f
16"
17"
1m
1d
1`
1y
1g
19"
1:"
1k
1i
1c
1!"
1<"
1="
1l
1a
1u
1?"
1@"
1h
1b
0<
08
0;
07
0:
06
09
05
1("
1,"
10"
14"
1&"
1'"
1)"
1*"
1+"
1-"
1."
1/"
11"
12"
13"
15"
0I
0H
0G
0F
0E
0D
0C
0B
1A
1.
b1 0
1/
#10000
1-
0.
b10 0
0/
#15000
11
0@"
15
05"
0%
0!
0"
0#
1$
1B
1.
b11 0
1/
#20000
1,
0-
0.
b100 0
0/
#25000
12
01
0="
1@"
16
05
01"
15"
1C
0B
1!
1.
b101 0
1/
#30000
1-
0.
b110 0
0/
#35000
11
1Z
0@"
0b
15
05"
0!
1"
1B
1.
b111 0
1/
#40000
1+
0,
0-
0.
b1000 0
0/
#45000
13
0Y
02
01
0Z
0:"
1c
1="
1@"
1b
17
06
05
0-"
11"
15"
1D
0C
0B
1!
1.
b1001 0
1/
#50000
1-
0.
b1010 0
0/
#55000
11
0@"
15
05"
0!
0"
1#
1B
1.
b1011 0
1/
#60000
1,
0-
0.
b1100 0
0/
#65000
12
1L
01
0="
0l
1@"
16
05
01"
15"
1C
0B
1!
1.
b1101 0
1/
#70000
1-
0.
b1110 0
0/
#75000
1Y
0c
11
1Z
0@"
0b
15
05"
0!
1"
1B
1.
b1111 0
1/
#80000
1*
0+
0,
0-
0.
b10000 0
0/
#85000
0=
1A"
1t
0>
0Q
1~
1r
0[
0R
1|
1$"
0\
0S
1z
1""
0;"
0J
0W
1@
04
1n
1e
0p
18"
0K
0X
1_
13
0Y
02
0L
01
0Z
06"
17"
1m
1d
0`
1:"
1c
1="
1l
1@"
1b
18
07
06
05
0)"
1-"
11"
15"
1E
0D
0C
0B
1!
1.
b10001 0
1/
#90000
1-
0.
b10010 0
0/
#95000
11
0@"
15
05"
0!
0"
0$
1B
1.
b10011 0
1/
#100000
1,
0-
0.
b10100 0
0/
#105000
12
01
0="
1@"
16
05
01"
15"
1C
0B
1!
1.
b10101 0
1/
#110000
1-
0.
b10110 0
0/
#115000
11
1Z
0@"
0b
15
05"
0!
1"
1B
1.
b10111 0
1/
#120000
1+
0,
0-
0.
b11000 0
0/
#125000
0=
1t
0Q
1r
0R
0>"
1$"
1?
0S
0x
1""
1M
0W
0v
1e
1O
0X
03
0j
1d
1;"
1P
0Y
12
01
0Z
09"
1:"
0i
1c
1="
1@"
1b
17
06
05
0-"
11"
15"
1D
0C
0B
1!
1.
b11001 0
1/
#130000
1-
0.
b11010 0
0/
#135000
11
0@"
15
05"
0!
0#
1B
1.
b11011 0
1/
#140000
1,
0-
0.
b11100 0
0/
#145000
0A"
1>
0~
1[
0|
1\
0z
1J
0n
1K
02
0m
1>"
1L
11
0<"
1="
0l
1@"
16
05
01"
15"
1C
0B
1!
1.
b11101 0
1/
#150000
1-
0.
b11110 0
0/
#155000
1=
0t
1Q
0r
1R
0$"
1S
0""
1W
0e
1X
0d
1Y
01
0c
1A"
1Z
0?"
1@"
0b
15
05"
0"
1B
1.
b11111 0
1/
#160000
1)
0*
0+
0,
0-
0.
b100000 0
0/
#165000
11
0@"
0=
1?"
1t
0>
0Q
1~
1r
0[
0R
0?
1|
1$"
1x
0\
0S
0M
1z
1""
1v
0J
0W
0@
0O
14
1n
1e
1p
03
1j
02
08"
0K
0X
0_
1;"
0P
0Y
1>"
0L
0Z
16"
1m
1d
1`
19"
1i
1c
1<"
1l
1b
08
07
06
04"
1)"
1-"
11"
15"
1F
0E
0D
0C
0B
0!
1%
1.
b100001 0
1/
#170000
1-
0.
b100010 0
0/
#175000
01
1=
1@"
0u
05
19
14"
02"
03"
15"
0%
1!
1$
1B
1.
b100011 0
1/
#180000
1,
0-
0.
b100100 0
0/
#185000
11
12
1Z
0=
0@"
0="
0b
1u
15
16
09
04"
01"
12"
13"
1C
0B
0!
1%
1.
b100101 0
1/
#190000
1-
0.
b100110 0
0/
#195000
01
0Z
1=
1@"
1b
0u
05
19
14"
02"
03"
15"
0%
1!
1"
1B
1.
b100111 0
1/
#200000
1+
0,
0-
0.
b101000 0
0/
#205000
11
13
02
0=
0@"
0:"
1="
1u
15
17
06
09
04"
0-"
11"
12"
13"
1D
0C
0B
0!
1%
1.
b101001 0
1/
#210000
1-
0.
b101010 0
0/
#215000
01
1=
1@"
0u
05
19
14"
02"
03"
15"
0%
1!
0"
1#
1B
1.
b101011 0
1/
#220000
1,
0-
0.
b101100 0
0/
#225000
1Y
0c
11
12
1L
1Z
0=
0@"
0="
0l
0b
1u
15
16
09
04"
01"
12"
13"
1C
0B
0!
1%
1.
b101101 0
1/
#230000
1-
0.
b101110 0
0/
#235000
0Y
1c
01
0Z
1=
1@"
1b
0u
05
19
14"
02"
03"
15"
0%
1!
1"
1B
1.
b101111 0
1/
#240000
1*
0+
0,
0-
0.
b110000 0
0/
#245000
1?"
1A"
0>
1~
0[
1|
0\
1z
0;"
0J
1@
04
1n
0p
11
18"
0K
1_
13
02
0L
0=
0@"
06"
17"
1m
0`
1:"
1="
1l
1u
15
18
07
06
09
04"
0)"
1-"
11"
12"
13"
1E
0D
0C
0B
0!
1%
1.
b110001 0
1/
#250000
1-
0.
b110010 0
0/
#255000
01
1=
1@"
0u
05
19
14"
02"
03"
15"
0%
1!
0"
0$
1B
1.
b110011 0
1/
#260000
1,
0-
0.
b110100 0
0/
#265000
11
12
1Z
0=
0@"
0="
0b
1u
15
16
09
04"
01"
12"
13"
1C
0B
0!
1%
1.
b110101 0
1/
#270000
1-
0.
b110110 0
0/
#275000
01
0Z
1=
1@"
1b
0u
05
19
14"
02"
03"
15"
0%
1!
1"
1B
1.
b110111 0
1/
#280000
1+
0,
0-
0.
b111000 0
0/
#285000
0>"
1?
0x
1M
0v
1O
03
0j
11
1;"
1P
12
0=
0@"
09"
1:"
0i
1="
1u
15
17
06
09
04"
0-"
11"
12"
13"
1D
0C
0B
0!
1%
1.
b111001 0
1/
#290000
1-
0.
b111010 0
0/
#295000
01
1=
1@"
0u
05
19
14"
02"
03"
15"
0%
1!
0#
1B
1.
b111011 0
1/
#300000
1,
0-
0.
b111100 0
0/
#305000
0t
1Q
0?"
1A"
0r
1>
1R
0~
0$"
1[
1S
0|
0""
1\
1W
0z
0e
1J
1X
0n
0d
1K
1Y
02
0m
0c
01
1>"
1L
1Z
1=
1@"
0<"
1="
0l
0b
1u
15
16
09
04"
01"
12"
13"
1C
0B
0!
1%
1.
b111101 0
1/
#310000
1-
0.
b111110 0
0/
#315000
1t
0Q
1r
0R
1$"
0S
1""
0W
1e
0X
1d
0Y
11
1c
0A"
0Z
1?"
1b
0u
05
19
14"
02"
03"
15"
0"
1B
1.
b111111 0
1/
#320000
1(
0)
0*
0+
0,
0-
0.
b1000000 0
0/
#325000
01
1A"
12
0>
0="
1~
1<"
0[
0?
1|
1x
0\
0M
1z
1v
0J
0@
0O
14
1n
1p
03
1j
08"
0K
0_
1;"
0L
0P
0=
16"
1m
1`
19"
1l
1i
1u
08
07
09
00"
1)"
1-"
11"
12"
13"
1G
0F
0E
0D
0C
0B
1!
1.
b1000001 0
1/
#330000
1-
0.
b1000010 0
0/
#335000
11
1Z
0@"
0b
15
05"
0%
0!
1"
1$
1B
1.
b1000011 0
1/
#340000
1,
0-
0.
b1000100 0
0/
#345000
0A"
02
1>
1="
11
0Z
0!"
06
1@"
1b
1:
10"
05
0."
0/"
11"
15"
1C
0B
1!
1.
b1000101 0
1/
#350000
1-
0.
b1000110 0
0/
#355000
1=
0t
1Q
01
0s
1A"
1T
0?"
1@"
0h
15
05"
0"
1B
1.
b1000111 0
1/
#360000
1+
0,
0-
0.
b1001000 0
0/
#365000
0=
1t
0Q
12
01
1s
13
1L
0>
0="
1A"
0T
0:"
0l
1!"
16
1?"
1h
17
0:
00"
05
0-"
1."
1/"
15"
1D
0C
0B
0!
1%
1.
b1001001 0
1/
#370000
1-
0.
b1001010 0
0/
#375000
1Y
0c
11
1Z
0@"
0b
15
05"
0%
1"
1#
1B
1.
b1001011 0
1/
#380000
1,
0-
0.
b1001100 0
0/
#385000
0Y
0A"
02
0L
1c
1>
1="
1l
11
0Z
0!"
06
1@"
1b
1:
10"
05
0."
0/"
11"
15"
1C
0B
1!
1.
b1001101 0
1/
#390000
1-
0.
b1001110 0
0/
#395000
1=
0t
1Q
01
0s
1A"
1T
0?"
1@"
0h
15
05"
0"
1B
1.
b1001111 0
1/
#400000
1*
0+
0,
0-
0.
b1010000 0
0/
#405000
0=
0;"
1t
1@
0Q
04
0p
12
01
1s
18"
1_
13
0>
0="
1A"
0T
06"
17"
0`
1:"
1!"
16
1?"
1h
18
07
0:
00"
05
0)"
1-"
1."
1/"
15"
1E
0D
0C
0B
0!
1%
1.
b1010001 0
1/
#410000
1-
0.
b1010010 0
0/
#415000
11
1Z
0@"
0b
15
05"
0%
1"
0$
1B
1.
b1010011 0
1/
#420000
1,
0-
0.
b1010100 0
0/
#425000
0A"
02
1>
1="
11
0Z
0!"
06
1@"
1b
1:
10"
05
0."
0/"
11"
15"
1C
0B
1!
1.
b1010101 0
1/
#430000
1-
0.
b1010110 0
0/
#435000
1=
0t
1Q
01
0s
1A"
1T
0?"
1@"
0h
15
05"
0"
1B
1.
b1010111 0
1/
#440000
1+
0,
0-
0.
b1011000 0
0/
#445000
0~
1[
0|
0<"
1>"
1\
1?
0z
0x
1J
1M
0=
0n
0v
1t
1K
1O
0Q
03
0m
0j
02
11
1s
1;"
1L
1P
1>
1="
0A"
0T
09"
1:"
0l
0i
1!"
16
1?"
1h
17
0:
00"
05
0-"
1."
1/"
15"
1D
0C
0B
0!
1%
1.
b1011001 0
1/
#450000
1-
0.
b1011010 0
0/
#455000
1=
0t
1Q
0r
1R
0$"
1S
0""
1W
0e
1X
0d
1Y
01
0c
1A"
1Z
0?"
1@"
0b
15
05"
0%
1!
0#
1B
1.
b1011011 0
1/
#460000
1,
0-
0.
b1011100 0
0/
#465000
0=
1t
0Q
1r
1~
0R
0[
1$"
1|
0S
0\
1""
1z
0W
0J
1e
1n
0X
0K
1d
12
1m
0Y
0>"
0L
11
1c
1<"
1l
0A"
0Z
0!"
06
1?"
1b
1:
10"
05
0."
0/"
11"
15"
1C
0B
0!
1%
1.
b1011101 0
1/
#470000
1-
0.
b1011110 0
0/
#475000
1=
0t
1Q
01
0s
1A"
1T
0?"
1@"
0h
15
05"
0%
1!
1"
1B
1.
b1011111 0
1/
#480000
1)
0*
0+
0,
0-
0.
b1100000 0
0/
#485000
0?
1x
0M
0=
1v
11
1t
0@
0O
0@"
0Q
12
14
1p
03
1j
1?"
1s
1>"
1Z
08"
0_
1;"
0P
0>
0T
1<"
0="
0b
16"
1`
19"
1i
1!"
1h
16
08
07
0:
00"
04"
1)"
1-"
1."
1/"
15"
1F
0E
0D
0C
0B
0!
1%
1.
b1100001 0
1/
#490000
1-
0.
b1100010 0
0/
#495000
01
0Z
1=
1@"
1b
0u
05
19
14"
02"
03"
15"
0%
1!
1$
1B
1.
b1100011 0
1/
#500000
1,
0-
0.
b1100100 0
0/
#505000
0t
1Q
0?"
1A"
0s
02
01
1>
1T
1="
1=
1@"
0!"
0h
06
1u
15
1:
10"
09
04"
0."
0/"
11"
12"
13"
1C
0B
0!
1%
1.
b1100101 0
1/
#510000
1-
0.
b1100110 0
0/
#515000
1t
0Q
11
1s
0A"
0T
1?"
1h
0u
05
19
14"
02"
03"
15"
0"
1B
1.
b1100111 0
1/
#520000
1+
0,
0-
0.
b1101000 0
0/
#525000
1Y
11
0c
12
1A"
1Z
13
1L
0>
0="
0=
1?"
0@"
0b
0:"
0l
1!"
16
1u
15
17
0:
00"
09
04"
0-"
1."
1/"
12"
13"
1D
0C
0B
1!
1.
b1101001 0
1/
#530000
1-
0.
b1101010 0
0/
#535000
0Y
1c
01
0Z
1=
1@"
1b
0u
05
19
14"
02"
03"
15"
0%
1"
1#
1B
1.
b1101011 0
1/
#540000
1,
0-
0.
b1101100 0
0/
#545000
0t
1Q
0?"
1A"
0s
02
0L
01
1>
1T
1="
1l
1=
1@"
0!"
0h
06
1u
15
1:
10"
09
04"
0."
0/"
11"
12"
13"
1C
0B
0!
1%
1.
b1101101 0
1/
#550000
1-
0.
b1101110 0
0/
#555000
1t
0Q
11
1s
0A"
0T
1?"
1h
0u
05
19
14"
02"
03"
15"
0"
1B
1.
b1101111 0
1/
#560000
1*
0+
0,
0-
0.
b1110000 0
0/
#565000
0;"
1@
11
04
0p
12
1A"
1Z
18"
1_
13
0>
0="
0=
1?"
0@"
0b
06"
17"
0`
1:"
1!"
16
1u
15
18
07
0:
00"
09
04"
0)"
1-"
1."
1/"
12"
13"
1E
0D
0C
0B
1!
1.
b1110001 0
1/
#570000
1-
0.
b1110010 0
0/
#575000
01
0Z
1=
1@"
1b
0u
05
19
14"
02"
03"
15"
0%
1"
0$
1B
1.
b1110011 0
1/
#580000
1,
0-
0.
b1110100 0
0/
#585000
0t
1Q
0?"
1A"
0s
02
01
1>
1T
1="
1=
1@"
0!"
0h
06
1u
15
1:
10"
09
04"
0."
0/"
11"
12"
13"
1C
0B
0!
1%
1.
b1110101 0
1/
#590000
1-
0.
b1110110 0
0/
#595000
1t
0Q
11
1s
0A"
0T
1?"
1h
0u
05
19
14"
02"
03"
15"
0"
1B
1.
b1110111 0
1/
#600000
1+
0,
0-
0.
b1111000 0
0/
#605000
0t
1Q
0r
1R
0$"
0~
1S
1[
0""
0|
0<"
1>"
1W
1\
1?
0e
0z
0x
1X
1J
1M
0d
0n
0v
1Y
1K
1O
01
0c
03
0m
0j
02
1A"
1Z
1;"
1L
1P
1>
1="
1=
0?"
1@"
0b
09"
1:"
0l
0i
1!"
16
1u
15
17
0:
00"
09
04"
0-"
1."
1/"
12"
13"
1D
0C
0B
1!
1.
b1111001 0
1/
#610000
1-
0.
b1111010 0
0/
#615000
1t
0Q
1r
0R
1$"
0S
1""
0W
1e
0X
1d
0Y
11
1c
0A"
0Z
1?"
1b
0u
05
19
14"
02"
03"
15"
0!
0#
1B
1.
b1111011 0
1/
#620000
1,
0-
0.
b1111100 0
0/
#625000
1~
0[
1|
0\
1z
0J
1n
0t
0K
1Q
12
1m
01
0s
0>"
0L
1A"
1T
1<"
1l
1=
0?"
1@"
0!"
0h
06
1u
15
1:
10"
09
04"
0."
0/"
11"
12"
13"
1C
0B
1!
1.
b1111101 0
1/
#630000
1-
0.
b1111110 0
0/
#635000
1t
0Q
11
1s
0A"
0T
1?"
1h
0u
05
19
14"
02"
03"
15"
0!
1"
1B
1.
b1111111 0
1/
#640000
1'
0(
0)
0*
0+
0,
0-
0.
b10000000 0
0/
#645000
02
1>"
0?
1x
13
0M
0:"
1v
19"
0O
0@
01
14
1j
1p
1A"
08"
0P
0_
0>
0=
16"
1i
1`
1!"
1u
08
0:
09
0,"
1)"
1-"
1."
1/"
12"
13"
1H
0G
0F
0E
0D
0C
0B
1!
1.
b10000001 0
1/
#650000
1-
0.
b10000010 0
0/
#655000
11
0@"
15
05"
0%
0!
0"
1#
1$
1B
1.
b10000011 0
1/
#660000
1,
0-
0.
b10000100 0
0/
#665000
12
1L
01
0="
0l
1@"
16
05
01"
15"
1C
0B
1!
1.
b10000101 0
1/
#670000
1-
0.
b10000110 0
0/
#675000
1Y
0c
11
1Z
0@"
0b
15
05"
0!
1"
1B
1.
b10000111 0
1/
#680000
1+
0,
0-
0.
b10001000 0
0/
#685000
0=
1t
0Q
1r
0R
0>"
1%"
03
0Y
1?
0U
1:"
1c
12
0L
01
0Z
0y
1g
07
1="
1l
1@"
1b
1;
1,"
06
05
0*"
0+"
1-"
11"
15"
1D
0C
0B
1!
1.
b10001001 0
1/
#690000
1-
0.
b10001010 0
0/
#695000
11
0@"
15
05"
0!
0#
1B
1.
b10001011 0
1/
#700000
1,
0-
0.
b10001100 0
0/
#705000
0A"
1>
0~
1[
02
0}
1>"
1]
11
0<"
1="
0a
1@"
16
05
01"
15"
1C
0B
1!
1.
b10001101 0
1/
#710000
1-
0.
b10001110 0
0/
#715000
1=
0t
1Q
0r
1R
0%"
1U
01
0g
1A"
1Z
0?"
1@"
0b
15
05"
0"
1B
1.
b10001111 0
1/
#720000
1*
0+
0,
0-
0.
b10010000 0
0/
