VERILOG/carryblock.vcd
$date
	Sun Dec  1 00:56:13 2024
$end
$version
	Icarus Verilog
$end
$timescale
	1ps
$end
$scope module carry_testbench $end
$var wire 1 ! c4 $end
$var wire 1 " c3 $end
$var wire 1 # c2 $end
$var wire 1 $ c1 $end
$var reg 1 % c0 $end
$var reg 1 & g1 $end
$var reg 1 ' g2 $end
$var reg 1 ( g3 $end
$var reg 1 ) g4 $end
$var reg 1 * p1 $end
$var reg 1 + p2 $end
$var reg 1 , p3 $end
$var reg 1 - p4 $end
$var integer 32 . i [31:0] $end
$scope module uut $end
$var wire 1 % c0 $end
$var wire 1 & g1 $end
$var wire 1 ' g2 $end
$var wire 1 ( g3 $end
$var wire 1 ) g4 $end
$var wire 1 * p1 $end
$var wire 1 + p2 $end
$var wire 1 , p3 $end
$var wire 1 - p4 $end
$var wire 1 / w9 $end
$var wire 1 0 w8 $end
$var wire 1 1 w7 $end
$var wire 1 2 w6 $end
$var wire 1 3 w5 $end
$var wire 1 4 w4 $end
$var wire 1 5 w3 $end
$var wire 1 6 w23 $end
$var wire 1 7 w22 $end
$var wire 1 8 w21 $end
$var wire 1 9 w20 $end
$var wire 1 : w19 $end
$var wire 1 ; w18 $end
$var wire 1 < w17 $end
$var wire 1 = w16 $end
$var wire 1 > w15 $end
$var wire 1 ? w14 $end
$var wire 1 @ w13 $end
$var wire 1 A w12 $end
$var wire 1 B w11 $end
$var wire 1 C w10 $end
$var wire 1 D w1 $end
$var wire 1 ! c4 $end
$var wire 1 " c3 $end
$var wire 1 # c2 $end
$var wire 1 $ c1 $end
$scope module and1 $end
$var wire 1 * a $end
$var wire 1 D and_out $end
$var wire 1 % b $end
$var wire 1 E n1 $end
$upscope $end
$scope module and10 $end
$var wire 1 , a $end
$var wire 1 B and_out $end
$var wire 1 ' b $end
$var wire 1 F n1 $end
$upscope $end
$scope module and11 $end
$var wire 1 - a $end
$var wire 1 ? and_out $end
$var wire 1 , b $end
$var wire 1 G n1 $end
$upscope $end
$scope module and12 $end
$var wire 1 ? a $end
$var wire 1 > and_out $end
$var wire 1 + b $end
$var wire 1 H n1 $end
$upscope $end
$scope module and13 $end
$var wire 1 > a $end
$var wire 1 = and_out $end
$var wire 1 * b $end
$var wire 1 I n1 $end
$upscope $end
$scope module and14 $end
$var wire 1 = a $end
$var wire 1 < and_out $end
$var wire 1 % b $end
$var wire 1 J n1 $end
$upscope $end
$scope module and15 $end
$var wire 1 > a $end
$var wire 1 ; and_out $end
$var wire 1 & b $end
$var wire 1 K n1 $end
$upscope $end
$scope module and16 $end
$var wire 1 ? a $end
$var wire 1 : and_out $end
$var wire 1 ' b $end
$var wire 1 L n1 $end
$upscope $end
$scope module and17 $end
$var wire 1 - a $end
$var wire 1 9 and_out $end
$var wire 1 ( b $end
$var wire 1 M n1 $end
$upscope $end
$scope module and3 $end
$var wire 1 + a $end
$var wire 1 5 and_out $end
$var wire 1 * b $end
$var wire 1 N n1 $end
$upscope $end
$scope module and4 $end
$var wire 1 5 a $end
$var wire 1 4 and_out $end
$var wire 1 % b $end
$var wire 1 O n1 $end
$upscope $end
$scope module and5 $end
$var wire 1 + a $end
$var wire 1 3 and_out $end
$var wire 1 & b $end
$var wire 1 P n1 $end
$upscope $end
$scope module and6 $end
$var wire 1 , a $end
$var wire 1 1 and_out $end
$var wire 1 + b $end
$var wire 1 Q n1 $end
$upscope $end
$scope module and7 $end
$var wire 1 1 a $end
$var wire 1 0 and_out $end
$var wire 1 * b $end
$var wire 1 R n1 $end
$upscope $end
$scope module and8 $end
$var wire 1 0 a $end
$var wire 1 / and_out $end
$var wire 1 % b $end
$var wire 1 S n1 $end
$upscope $end
$scope module and9 $end
$var wire 1 1 a $end
$var wire 1 C and_out $end
$var wire 1 & b $end
$var wire 1 T n1 $end
$upscope $end
$scope module or1 $end
$var wire 1 D a $end
$var wire 1 & b $end
$var wire 1 U n1 $end
$var wire 1 V n2 $end
$var wire 1 $ or_out $end
$upscope $end
$scope module or10 $end
$var wire 1 9 b $end
$var wire 1 W n1 $end
$var wire 1 X n2 $end
$var wire 1 6 or_out $end
$var wire 1 7 a $end
$upscope $end
$scope module or11 $end
$var wire 1 6 a $end
$var wire 1 ) b $end
$var wire 1 Y n1 $end
$var wire 1 Z n2 $end
$var wire 1 ! or_out $end
$upscope $end
$scope module or3 $end
$var wire 1 4 a $end
$var wire 1 3 b $end
$var wire 1 [ n1 $end
$var wire 1 \ n2 $end
$var wire 1 2 or_out $end
$upscope $end
$scope module or4 $end
$var wire 1 2 a $end
$var wire 1 ' b $end
$var wire 1 ] n1 $end
$var wire 1 ^ n2 $end
$var wire 1 # or_out $end
$upscope $end
$scope module or5 $end
$var wire 1 / a $end
$var wire 1 C b $end
$var wire 1 _ n1 $end
$var wire 1 ` n2 $end
$var wire 1 A or_out $end
$upscope $end
$scope module or6 $end
$var wire 1 A a $end
$var wire 1 B b $end
$var wire 1 a n1 $end
$var wire 1 b n2 $end
$var wire 1 @ or_out $end
$upscope $end
$scope module or7 $end
$var wire 1 @ a $end
$var wire 1 ( b $end
$var wire 1 c n1 $end
$var wire 1 d n2 $end
$var wire 1 " or_out $end
$upscope $end
$scope module or8 $end
$var wire 1 < a $end
$var wire 1 ; b $end
$var wire 1 e n1 $end
$var wire 1 f n2 $end
$var wire 1 8 or_out $end
$upscope $end
$scope module or9 $end
$var wire 1 8 a $end
$var wire 1 : b $end
$var wire 1 g n1 $end
$var wire 1 h n2 $end
$var wire 1 7 or_out $end
$upscope $end
$upscope $end
$upscope $end
$enddefinitions $end
#0
$dumpvars
1h
1g
1f
1e
1d
1c
1b
1a
1`
1_
1^
1]
1\
1[
1Z
1Y
1X
1W
1V
1U
1T
1S
1R
1Q
1P
1O
1N
1M
1L
1K
1J
1I
1H
1G
1F
1E
0D
0C
0B
0A
0@
0?
0>
0=
0<
0;
0:
09
08
07
06
05
04
03
02
01
00
0/
b0 .
0-
0,
0+
0*
0)
0(
0'
0&
0%
0$
0#
0"
0!
$end
#10000
1%
b1 .
#20000
1!
0Z
1)
0%
b10 .
#30000
1%
b11 .
#40000
1"
0!
0d
1Z
1(
0)
0%
b100 .
#50000
1%
b101 .
#60000
1!
0Z
1)
0%
b110 .
#70000
1%
b111 .
#80000
1#
0"
0!
0^
1d
1Z
1'
0(
0)
0%
b1000 .
#90000
1%
b1001 .
#100000
1!
0Z
1)
0%
b1010 .
#110000
1%
b1011 .
#120000
1"
0!
0d
1Z
1(
0)
0%
b1100 .
#130000
1%
b1101 .
#140000
1!
0Z
1)
0%
b1110 .
#150000
1%
b1111 .
#160000
1$
0#
0"
0!
0V
1^
1d
1Z
1&
0'
0(
0)
0%
b10000 .
#170000
1%
b10001 .
#180000
1!
0Z
1)
0%
b10010 .
#190000
1%
b10011 .
#200000
1"
0!
0d
1Z
1(
0)
0%
b10100 .
#210000
1%
b10101 .
#220000
1!
0Z
1)
0%
b10110 .
#230000
1%
b10111 .
#240000
1#
0"
0!
0^
1d
1Z
1'
0(
0)
0%
b11000 .
#250000
1%
b11001 .
#260000
1!
0Z
1)
0%
b11010 .
#270000
1%
b11011 .
#280000
1"
0!
0d
1Z
1(
0)
0%
b11100 .
#290000
1%
b11101 .
#300000
1!
0Z
1)
0%
b11110 .
#310000
1%
b11111 .
#320000
0$
0#
0"
0!
1V
1^
1d
1Z
1-
0&
0'
0(
0)
0%
b100000 .
#330000
1%
b100001 .
#340000
1!
0Z
1)
0%
b100010 .
#350000
1%
b100011 .
#360000
0Y
16
0X
19
1"
1!
0M
0d
1Z
1(
0)
0%
b100100 .
#370000
1%
b100101 .
#380000
0Z
1)
0%
b100110 .
#390000
1%
b100111 .
#400000
0!
1Y
06
1X
1#
09
0"
0^
1M
1d
1Z
1'
0(
0)
0%
b101000 .
#410000
1%
b101001 .
#420000
1!
0Z
1)
0%
b101010 .
#430000
1%
b101011 .
#440000
0Y
16
0X
19
1"
1!
0M
0d
1Z
1(
0)
0%
b101100 .
#450000
1%
b101101 .
#460000
0Z
1)
0%
b101110 .
#470000
1%
b101111 .
#480000
0!
1Y
06
1X
1$
0#
09
0"
0V
1^
1M
1d
1Z
1&
0'
0(
0)
0%
b110000 .
#490000
1%
b110001 .
#500000
1!
0Z
1)
0%
b110010 .
#510000
1%
b110011 .
#520000
0Y
16
0X
19
1"
1!
0M
0d
1Z
1(
0)
0%
b110100 .
#530000
1%
b110101 .
#540000
0Z
1)
0%
b110110 .
#550000
1%
b110111 .
#560000
0!
1Y
06
1X
1#
09
0"
0^
1M
1d
1Z
1'
0(
0)
0%
b111000 .
#570000
1%
b111001 .
#580000
1!
0Z
1)
0%
b111010 .
#590000
1%
b111011 .
#600000
0Y
16
0X
19
1"
1!
0M
0d
1Z
1(
0)
0%
b111100 .
#610000
1%
b111101 .
#620000
0Z
1)
0%
b111110 .
#630000
1%
b111111 .
#640000
0!
1Y
06
1X
0$
0#
09
0"
1V
1^
1M
1d
1Z
1,
0-
0&
0'
0(
0)
0%
b1000000 .
#650000
1%
b1000001 .
#660000
1!
0Z
1)
0%
b1000010 .
#670000
1%
b1000011 .
#680000
1"
0!
0d
1Z
1(
0)
0%
b1000100 .
#690000
1%
b1000101 .
#700000
1!
0Z
1)
0%
b1000110 .
#710000
1%
b1000111 .
#720000
0c
1@
0b
1B
1#
1"
0!
0F
0^
1d
1Z
1'
0(
0)
0%
b1001000 .
#730000
1%
b1001001 .
#740000
1!
0Z
1)
0%
b1001010 .
#750000
1%
b1001011 .
#760000
0!
0d
1Z
1(
0)
0%
b1001100 .
#770000
1%
b1001101 .
#780000
1!
0Z
1)
0%
b1001110 .
#790000
1%
b1001111 .
#800000
0"
1c
0@
1b
1$
0B
0#
0!
0V
1F
1^
1d
1Z
1&
0'
0(
0)
0%
b1010000 .
#810000
1%
b1010001 .
#820000
1!
0Z
1)
0%
b1010010 .
#830000
1%
b1010011 .
#840000
1"
0!
0d
1Z
1(
0)
0%
b1010100 .
#850000
1%
b1010101 .
#860000
1!
0Z
1)
0%
b1010110 .
#870000
1%
b1010111 .
#880000
0c
1@
0b
1B
1#
1"
0!
0F
0^
1d
1Z
1'
0(
0)
0%
b1011000 .
#890000
1%
b1011001 .
#900000
1!
0Z
1)
0%
b1011010 .
#910000
1%
b1011011 .
#920000
0!
0d
1Z
1(
0)
0%
b1011100 .
#930000
1%
b1011101 .
#940000
1!
0Z
1)
0%
b1011110 .
#950000
1%
b1011111 .
#960000
0"
1c
0@
1b
1?
0$
0B
0#
0!
0G
1V
1F
1^
1d
1Z
1-
0&
0'
0(
0)
0%
b1100000 .
#970000
1%
b1100001 .
#980000
1!
0Z
1)
0%
b1100010 .
#990000
1%
b1100011 .
#1000000
0Y
16
0X
19
1"
1!
0M
0d
1Z
1(
0)
0%
b1100100 .
#1010000
1%
b1100101 .
#1020000
0Z
1)
0%
b1100110 .
#1030000
1%
b1100111 .
#1040000
1!
0c
0W
0Y
1@
17
16
0b
0h
1X
1B
1:
1#
09
1"
0F
0L
0^
1M
1d
1Z
1'
0(
0)
0%
b1101000 .
#1050000
1%
b1101001 .
#1060000
0Z
1)
0%
b1101010 .
#1070000
1%
b1101011 .
#1080000
0X
19
0M
0d
1Z
1(
0)
0%
b1101100 .
#1090000
1%
b1101101 .
#1100000
0Z
1)
0%
b1101110 .
#1110000
1%
b1101111 .
#1120000
0!
1Y
0"
06
1c
1W
0@
07
1b
1h
1X
1$
0B
0:
0#
09
0V
1F
1L
1^
1M
1d
1Z
1&
0'
0(
0)
0%
b1110000 .
#1130000
1%
b1110001 .
#1140000
1!
0Z
1)
0%
b1110010 .
#1150000
1%
b1110011 .
#1160000
0Y
16
0X
19
1"
1!
0M
0d
1Z
1(
0)
0%
b1110100 .
#1170000
1%
b1110101 .
#1180000
0Z
1)
0%
b1110110 .
#1190000
1%
b1110111 .
#1200000
1!
0c
0W
0Y
1@
17
16
0b
0h
1X
1B
1:
1#
09
1"
0F
0L
0^
1M
1d
1Z
1'
0(
0)
0%
b1111000 .
#1210000
1%
b1111001 .
#1220000
0Z
1)
0%
b1111010 .
#1230000
1%
b1111011 .
#1240000
0X
19
0M
0d
1Z
1(
0)
0%
b1111100 .
#1250000
1%
b1111101 .
#1260000
0Z
1)
0%
b1111110 .
#1270000
1%
b1111111 .
#1280000
0!
1Y
0"
06
1c
1W
0@
07
1b
1h
1X
0>
0?
0$
0B
0:
0#
09
1H
1G
1V
1F
1L
1^
1M
1d
1Z
1+
0,
0-
0&
0'
0(
0)
0%
b10000000 .
#1290000
1%
b10000001 .
#1300000
1!
0Z
1)
0%
b10000010 .
#1310000
1%
b10000011 .
#1320000
1"
0!
0d
1Z
1(
0)
0%
b10000100 .
#1330000
1%
b10000101 .
#1340000
1!
0Z
1)
0%
b10000110 .
#1350000
1%
b10000111 .
#1360000
1#
0"
0!
0^
1d
1Z
1'
0(
0)
0%
b10001000 .
#1370000
1%
b10001001 .
#1380000
1!
0Z
1)
0%
b10001010 .
#1390000
1%
b10001011 .
#1400000
1"
0!
0d
1Z
1(
0)
0%
b10001100 .
#1410000
1%
b10001101 .
#1420000
1!
0Z
1)
0%
b10001110 .
#1430000
1%
b10001111 .
#1440000
0]
12
0\
13
1$
1#
0"
0!
0P
0V
1^
1d
1Z
1&
0'
0(
0)
0%
b10010000 .
#1450000
1%
b10010001 .
#1460000
1!
0Z
1)
0%
b10010010 .
#1470000
1%
b10010011 .
#1480000
1"
0!
0d
1Z
1(
0)
0%
b10010100 .
#1490000
1%
b10010101 .
#1500000
1!
0Z
1)
0%
b10010110 .
#1510000
1%
b10010111 .
#1520000
0"
0!
0^
1d
1Z
1'
0(
0)
0%
b10011000 .
#1530000
1%
b10011001 .
#1540000
1!
0Z
1)
0%
b10011010 .
#1550000
1%
b10011011 .
#1560000
1"
0!
0d
1Z
1(
0)
0%
b10011100 .
#1570000
1%
b10011101 .
#1580000
1!
0Z
1)
0%
b10011110 .
#1590000
1%
b10011111 .
#1600000
0#
1]
02
1\
03
0$
0"
0!
1P
1V
1^
1d
1Z
1-
0&
0'
0(
0)
0%
b10100000 .
#1610000
1%
b10100001 .
#1620000
1!
0Z
1)
0%
b10100010 .
#1630000
1%
b10100011 .
#1640000
0Y
16
0X
19
1"
1!
0M
0d
1Z
1(
0)
0%
b10100100 .
#1650000
1%
b10100101 .
#1660000
0Z
1)
0%
b10100110 .
#1670000
1%
b10100111 .
#1680000
0!
1Y
06
1X
1#
09
0"
0^
1M
1d
1Z
1'
0(
0)
0%
b10101000 .
#1690000
1%
b10101001 .
#1700000
1!
0Z
1)
0%
b10101010 .
#1710000
1%
b10101011 .
#1720000
0Y
16
0X
19
1"
1!
0M
0d
1Z
1(
0)
0%
b10101100 .
#1730000
1%
b10101101 .
#1740000
0Z
1)
0%
b10101110 .
#1750000
1%
b10101111 .
#1760000
0!
0]
1Y
12
06
0\
1X
13
1$
1#
09
0"
0P
0V
1^
1M
1d
1Z
1&
0'
0(
0)
0%
b10110000 .
#1770000
1%
b10110001 .
#1780000
1!
0Z
1)
0%
b10110010 .
#1790000
1%
b10110011 .
#1800000
0Y
16
0X
19
1"
1!
0M
0d
1Z
1(
0)
0%
b10110100 .
#1810000
1%
b10110101 .
#1820000
0Z
1)
0%
b10110110 .
#1830000
1%
b10110111 .
#1840000
0!
1Y
06
1X
09
0"
0^
1M
1d
1Z
1'
0(
0)
0%
b10111000 .
#1850000
1%
b10111001 .
#1860000
1!
0Z
1)
0%
b10111010 .
#1870000
1%
b10111011 .
#1880000
0Y
16
0X
19
1"
1!
0M
0d
1Z
1(
0)
0%
b10111100 .
#1890000
1%
b10111101 .
#1900000
0Z
1)
0%
b10111110 .
#1910000
1%
b10111111 .
#1920000
0#
0!
1]
1Y
02
06
1\
1X
11
03
0$
09
0"
0Q
1P
1V
1^
1M
1d
1Z
1,
0-
0&
0'
0(
0)
0%
b11000000 .
#1930000
1%
b11000001 .
#1940000
1!
0Z
1)
0%
b11000010 .
#1950000
1%
b11000011 .
#1960000
1"
0!
0d
1Z
1(
0)
0%
b11000100 .
#1970000
1%
b11000101 .
#1980000
1!
0Z
1)
0%
b11000110 .
#1990000
1%
b11000111 .
#2000000
0c
1@
0b
1B
1#
1"
0!
0F
0^
1d
1Z
1'
0(
0)
0%
b11001000 .
#2010000
1%
b11001001 .
#2020000
1!
0Z
1)
0%
b11001010 .
#2030000
1%
b11001011 .
#2040000
0!
0d
1Z
1(
0)
0%
b11001100 .
#2050000
1%
b11001101 .
#2060000
1!
0Z
1)
0%
b11001110 .
#2070000
1%
b11001111 .
#2080000
1"
0]
0a
0c
12
1A
1@
0\
0`
1b
13
1C
1$
0B
1#
0!
0P
0T
0V
1F
1^
1d
1Z
1&
0'
0(
0)
0%
b11010000 .
#2090000
1%
b11010001 .
#2100000
1!
0Z
1)
0%
b11010010 .
#2110000
1%
b11010011 .
#2120000
0!
0d
1Z
1(
0)
0%
b11010100 .
#2130000
1%
b11010101 .
#2140000
1!
0Z
1)
0%
b11010110 .
#2150000
1%
b11010111 .
#2160000
0b
1B
0!
0F
0^
1d
1Z
1'
0(
0)
0%
b11011000 .
#2170000
1%
b11011001 .
#2180000
1!
0Z
1)
0%
b11011010 .
#2190000
1%
b11011011 .
#2200000
0!
0d
1Z
1(
0)
0%
b11011100 .
#2210000
1%
b11011101 .
#2220000
1!
0Z
1)
0%
b11011110 .
#2230000
1%
b11011111 .
#2240000
0"
1c
0#
0@
1]
1a
1>
02
0A
0H
1\
1`
1b
1?
03
0C
0$
0B
0!
0G
1P
1T
1V
1F
1^
1d
1Z
1-
0&
0'
0(
0)
0%
b11100000 .
#2250000
1%
b11100001 .
#2260000
1!
0Z
1)
0%
b11100010 .
#2270000
1%
b11100011 .
#2280000
0Y
16
0X
19
1"
1!
0M
0d
1Z
1(
0)
0%
b11100100 .
#2290000
1%
b11100101 .
#2300000
0Z
1)
0%
b11100110 .
#2310000
1%
b11100111 .
#2320000
1!
0c
0W
0Y
1@
17
16
0b
0h
1X
1B
1:
1#
09
1"
0F
0L
0^
1M
1d
1Z
1'
0(
0)
0%
b11101000 .
#2330000
1%
b11101001 .
#2340000
0Z
1)
0%
b11101010 .
#2350000
1%
b11101011 .
#2360000
0X
19
0M
0d
1Z
1(
0)
0%
b11101100 .
#2370000
1%
b11101101 .
#2380000
0Z
1)
0%
b11101110 .
#2390000
1%
b11101111 .
#2400000
1!
0Y
1"
16
0g
0]
0a
0c
0W
18
12
1A
1@
17
0f
0\
0`
1b
1h
1X
1;
13
1C
1$
0B
0:
1#
09
0K
0P
0T
0V
1F
1L
1^
1M
1d
1Z
1&
0'
0(
0)
0%
b11110000 .
#2410000
1%
b11110001 .
#2420000
0Z
1)
0%
b11110010 .
#2430000
1%
b11110011 .
#2440000
0X
19
0M
0d
1Z
1(
0)
0%
b11110100 .
#2450000
1%
b11110101 .
#2460000
0Z
1)
0%
b11110110 .
#2470000
1%
b11110111 .
#2480000
0b
0h
1X
1B
1:
09
0F
0L
0^
1M
1d
1Z
1'
0(
0)
0%
b11111000 .
#2490000
1%
b11111001 .
#2500000
0Z
1)
0%
b11111010 .
#2510000
1%
b11111011 .
#2520000
0X
19
0M
0d
1Z
1(
0)
0%
b11111100 .
#2530000
1%
b11111101 .
#2540000
0Z
1)
0%
b11111110 .
#2550000
1%
b11111111 .
#2560000
0!
1Y
06
0"
1W
1c
07
0#
0@
1g
1]
1a
08
02
0A
1f
1\
1`
1b
1h
1X
0=
00
0>
01
0?
0;
03
0C
0$
0B
0:
09
1I
1R
1H
1Q
1G
1K
1P
1T
1V
1F
1L
1^
1M
1d
1Z
1*
0+
0,
0-
0&
0'
0(
0)
0%
b100000000 .
#2570000
1$
0U
1D
0E
1%
b100000001 .
#2580000
0$
1U
1!
0D
0Z
1E
1)
0%
b100000010 .
#2590000
1$
0U
1D
0E
1%
b100000011 .
#2600000
0$
1U
1"
0!
0D
0d
1Z
1E
1(
0)
0%
b100000100 .
#2610000
1$
0U
1D
0E
1%
b100000101 .
#2620000
0$
1U
1!
0D
0Z
1E
1)
0%
b100000110 .
#2630000
1$
0U
1D
0E
1%
b100000111 .
#2640000
0$
1U
1#
0"
0!
0D
0^
1d
1Z
1E
1'
0(
0)
0%
b100001000 .
#2650000
1$
0U
1D
0E
1%
b100001001 .
#2660000
0$
1U
1!
0D
0Z
1E
1)
0%
b100001010 .
#2670000
1$
0U
1D
0E
1%
b100001011 .
#2680000
0$
1U
1"
0!
0D
0d
1Z
1E
1(
0)
0%
b100001100 .
#2690000
1$
0U
1D
0E
1%
b100001101 .
#2700000
0$
1U
1!
0D
0Z
1E
1)
0%
b100001110 .
#2710000
1$
0U
1D
0E
1%
b100001111 .
#2720000
1U
0#
0"
0!
0D
0V
1^
1d
1Z
1E
1&
0'
0(
0)
0%
b100010000 .
#2730000
0U
1D
0E
1%
b100010001 .
#2740000
1U
1!
0D
0Z
1E
1)
0%
b100010010 .
#2750000
0U
1D
0E
1%
b100010011 .
#2760000
1U
1"
0!
0D
0d
1Z
1E
1(
0)
0%
b100010100 .
#2770000
0U
1D
0E
1%
b100010101 .
#2780000
1U
1!
0D
0Z
1E
1)
0%
b100010110 .
#2790000
0U
1D
0E
1%
b100010111 .
#2800000
1U
1#
0"
0!
0D
0^
1d
1Z
1E
1'
0(
0)
0%
b100011000 .
#2810000
0U
1D
0E
1%
b100011001 .
#2820000
1U
1!
0D
0Z
1E
1)
0%
b100011010 .
#2830000
0U
1D
0E
1%
b100011011 .
#2840000
1U
1"
0!
0D
0d
1Z
1E
1(
0)
0%
b100011100 .
#2850000
0U
1D
0E
1%
b100011101 .
#2860000
1U
1!
0D
0Z
1E
1)
0%
b100011110 .
#2870000
0U
1D
0E
1%
b100011111 .
#2880000
0$
1U
0#
0"
0!
0D
1V
1^
1d
1Z
1E
1-
0&
0'
0(
0)
0%
b100100000 .
#2890000
1$
0U
1D
0E
1%
b100100001 .
#2900000
0$
1U
1!
0D
0Z
1E
1)
0%
b100100010 .
#2910000
1$
0U
1D
0E
1%
b100100011 .
#2920000
0Y
16
0$
0X
1U
19
1"
1!
0D
0M
0d
1Z
1E
1(
0)
0%
b100100100 .
#2930000
1$
0U
1D
0E
1%
b100100101 .
#2940000
0$
1U
0D
0Z
1E
1)
0%
b100100110 .
#2950000
1$
0U
1D
0E
1%
b100100111 .
#2960000
0!
1Y
06
0$
1X
1U
1#
09
0"
0D
0^
1M
1d
1Z
1E
1'
0(
0)
0%
b100101000 .
#2970000
1$
0U
1D
0E
1%
b100101001 .
#2980000
0$
1U
1!
0D
0Z
1E
1)
0%
b100101010 .
#2990000
1$
0U
1D
0E
1%
b100101011 .
#3000000
0Y
16
0$
0X
1U
19
1"
1!
0D
0M
0d
1Z
1E
1(
0)
0%
b100101100 .
#3010000
1$
0U
1D
0E
1%
b100101101 .
#3020000
0$
1U
0D
0Z
1E
1)
0%
b100101110 .
#3030000
1$
0U
1D
0E
1%
b100101111 .
#3040000
0!
1Y
06
1X
1U
0#
09
0"
0D
0V
1^
1M
1d
1Z
1E
1&
0'
0(
0)
0%
b100110000 .
#3050000
0U
1D
0E
1%
b100110001 .
#3060000
1U
1!
0D
0Z
1E
1)
0%
b100110010 .
#3070000
0U
1D
0E
1%
b100110011 .
#3080000
0Y
16
0X
1U
19
1"
1!
0D
0M
0d
1Z
1E
1(
0)
0%
b100110100 .
#3090000
0U
1D
0E
1%
b100110101 .
#3100000
1U
0D
0Z
1E
1)
0%
b100110110 .
#3110000
0U
1D
0E
1%
b100110111 .
#3120000
0!
1Y
06
1X
1U
1#
09
0"
0D
0^
1M
1d
1Z
1E
1'
0(
0)
0%
b100111000 .
#3130000
0U
1D
0E
1%
b100111001 .
#3140000
1U
1!
0D
0Z
1E
1)
0%
b100111010 .
#3150000
0U
1D
0E
1%
b100111011 .
#3160000
0Y
16
0X
1U
19
1"
1!
0D
0M
0d
1Z
1E
1(
0)
0%
b100111100 .
#3170000
0U
1D
0E
1%
b100111101 .
#3180000
1U
0D
0Z
1E
1)
0%
b100111110 .
#3190000
0U
1D
0E
1%
b100111111 .
#3200000
0!
1Y
06
0$
1X
1U
0#
09
0"
0D
1V
1^
1M
1d
1Z
1E
1,
0-
0&
0'
0(
0)
0%
b101000000 .
#3210000
1$
0U
1D
0E
1%
b101000001 .
#3220000
0$
1U
1!
0D
0Z
1E
1)
0%
b101000010 .
#3230000
1$
0U
1D
0E
1%
b101000011 .
#3240000
0$
1U
1"
0!
0D
0d
1Z
1E
1(
0)
0%
b101000100 .
#3250000
1$
0U
1D
0E
1%
b101000101 .
#3260000
0$
1U
1!
0D
0Z
1E
1)
0%
b101000110 .
#3270000
1$
0U
1D
0E
1%
b101000111 .
#3280000
0c
1@
0$
0b
1U
1B
1#
1"
0!
0D
0F
0^
1d
1Z
1E
1'
0(
0)
0%
b101001000 .
#3290000
1$
0U
1D
0E
1%
b101001001 .
#3300000
0$
1U
1!
0D
0Z
1E
1)
0%
b101001010 .
#3310000
1$
0U
1D
0E
1%
b101001011 .
#3320000
0$
1U
0!
0D
0d
1Z
1E
1(
0)
0%
b101001100 .
#3330000
1$
0U
1D
0E
1%
b101001101 .
#3340000
0$
1U
1!
0D
0Z
1E
1)
0%
b101001110 .
#3350000
1$
0U
1D
0E
1%
b101001111 .
#3360000
0"
1c
0@
1b
1U
0B
0#
0!
0D
0V
1F
1^
1d
1Z
1E
1&
0'
0(
0)
0%
b101010000 .
#3370000
0U
1D
0E
1%
b101010001 .
#3380000
1U
1!
0D
0Z
1E
1)
0%
b101010010 .
#3390000
0U
1D
0E
1%
b101010011 .
#3400000
1U
1"
0!
0D
0d
1Z
1E
1(
0)
0%
b101010100 .
#3410000
0U
1D
0E
1%
b101010101 .
#3420000
1U
1!
0D
0Z
1E
1)
0%
b101010110 .
#3430000
0U
1D
0E
1%
b101010111 .
#3440000
0c
1@
0b
1U
1B
1#
1"
0!
0D
0F
0^
1d
1Z
1E
1'
0(
0)
0%
b101011000 .
#3450000
0U
1D
0E
1%
b101011001 .
#3460000
1U
1!
0D
0Z
1E
1)
0%
b101011010 .
#3470000
0U
1D
0E
1%
b101011011 .
#3480000
1U
0!
0D
0d
1Z
1E
1(
0)
0%
b101011100 .
#3490000
0U
1D
0E
1%
b101011101 .
#3500000
1U
1!
0D
0Z
1E
1)
0%
b101011110 .
#3510000
0U
1D
0E
1%
b101011111 .
#3520000
0"
1c
0@
0$
1b
1U
1?
0B
0#
0!
0D
0G
1V
1F
1^
1d
1Z
1E
1-
0&
0'
0(
0)
0%
b101100000 .
#3530000
1$
0U
1D
0E
1%
b101100001 .
#3540000
0$
1U
1!
0D
0Z
1E
1)
0%
b101100010 .
#3550000
1$
0U
1D
0E
1%
b101100011 .
#3560000
0Y
16
0$
0X
1U
19
1"
1!
0D
0M
0d
1Z
1E
1(
0)
0%
b101100100 .
#3570000
1$
0U
1D
0E
1%
b101100101 .
#3580000
0$
1U
0D
0Z
1E
1)
0%
b101100110 .
#3590000
1$
0U
1D
0E
1%
b101100111 .
#3600000
1!
0c
0W
0Y
1@
17
16
0$
0b
0h
1X
1U
1B
1:
1#
09
1"
0D
0F
0L
0^
1M
1d
1Z
1E
1'
0(
0)
0%
b101101000 .
#3610000
1$
0U
1D
0E
1%
b101101001 .
#3620000
0$
1U
0D
0Z
1E
1)
0%
b101101010 .
#3630000
1$
0U
1D
0E
1%
b101101011 .
#3640000
0$
0X
1U
19
0D
0M
0d
1Z
1E
1(
0)
0%
b101101100 .
#3650000
1$
0U
1D
0E
1%
b101101101 .
#3660000
0$
1U
0D
0Z
1E
1)
0%
b101101110 .
#3670000
1$
0U
1D
0E
1%
b101101111 .
#3680000
0!
1Y
0"
06
1c
1W
0@
07
1b
1h
1X
1U
0B
0:
0#
09
0D
0V
1F
1L
1^
1M
1d
1Z
1E
1&
0'
0(
0)
0%
b101110000 .
#3690000
0U
1D
0E
1%
b101110001 .
#3700000
1U
1!
0D
0Z
1E
1)
0%
b101110010 .
#3710000
0U
1D
0E
1%
b101110011 .
#3720000
0Y
16
0X
1U
19
1"
1!
0D
0M
0d
1Z
1E
1(
0)
0%
b101110100 .
#3730000
0U
1D
0E
1%
b101110101 .
#3740000
1U
0D
0Z
1E
1)
0%
b101110110 .
#3750000
0U
1D
0E
1%
b101110111 .
#3760000
1!
0c
0W
0Y
1@
17
16
0b
0h
1X
1U
1B
1:
1#
09
1"
0D
0F
0L
0^
1M
1d
1Z
1E
1'
0(
0)
0%
b101111000 .
#3770000
0U
1D
0E
1%
b101111001 .
#3780000
1U
0D
0Z
1E
1)
0%
b101111010 .
#3790000
0U
1D
0E
1%
b101111011 .
#3800000
0X
1U
19
0D
0M
0d
1Z
1E
1(
0)
0%
b101111100 .
#3810000
0U
1D
0E
1%
b101111101 .
#3820000
1U
0D
0Z
1E
1)
0%
b101111110 .
#3830000
0U
1D
0E
1%
b101111111 .
#3840000
0!
1Y
0"
06
1c
1W
0=
0@
07
0$
1I
1b
1h
1X
1U
0>
15
0?
0B
0:
0#
09
0D
1H
0N
1G
1V
1F
1L
1^
1M
1d
1Z
1E
1+
0,
0-
0&
0'
0(
0)
0%
b110000000 .
#3850000
1#
0]
1$
12
0U
0[
1D
14
0E
0O
1%
b110000001 .
#3860000
0#
1]
0$
02
1U
1[
1!
0D
04
0Z
1E
1O
1)
0%
b110000010 .
#3870000
1#
0]
1$
12
0U
0[
1D
14
0E
0O
1%
b110000011 .
#3880000
0#
1]
0$
02
1U
1[
1"
0!
0D
04
0d
1Z
1E
1O
1(
0)
0%
b110000100 .
#3890000
1#
0]
1$
12
0U
0[
1D
14
0E
0O
1%
b110000101 .
#3900000
0#
1]
0$
02
1U
1[
1!
0D
04
0Z
1E
1O
1)
0%
b110000110 .
